C:\Users\marci\Desktop\Marcin\Java-nauka\bookstore\src\main\java\com\yourbooks\bookstore\domain\repository\BookRepository.java
C:\Users\marci\Desktop\Marcin\Java-nauka\bookstore\src\main\java\com\yourbooks\bookstore\controller\BookController.java
C:\Users\marci\Desktop\Marcin\Java-nauka\bookstore\src\main\java\com\yourbooks\bookstore\service\impl\UserServiceImpl.java
C:\Users\marci\Desktop\Marcin\Java-nauka\bookstore\src\main\java\com\yourbooks\bookstore\domain\Book.java
C:\Users\marci\Desktop\Marcin\Java-nauka\bookstore\src\main\java\com\yourbooks\bookstore\service\impl\BookServiceImpl.java
C:\Users\marci\Desktop\Marcin\Java-nauka\bookstore\src\main\java\com\yourbooks\bookstore\controller\IndexController.java
C:\Users\marci\Desktop\Marcin\Java-nauka\bookstore\src\main\java\com\yourbooks\bookstore\dao\BookDAO.java
C:\Users\marci\Desktop\Marcin\Java-nauka\bookstore\src\main\java\com\yourbooks\bookstore\controller\HomeController.java
C:\Users\marci\Desktop\Marcin\Java-nauka\bookstore\src\main\java\com\yourbooks\bookstore\dao\impl\UserDAOImpl.java
C:\Users\marci\Desktop\Marcin\Java-nauka\bookstore\src\main\java\com\yourbooks\bookstore\service\BookService.java
C:\Users\marci\Desktop\Marcin\Java-nauka\bookstore\src\main\java\com\yourbooks\bookstore\dao\UserDAO.java
C:\Users\marci\Desktop\Marcin\Java-nauka\bookstore\src\main\java\com\yourbooks\bookstore\domain\User.java
C:\Users\marci\Desktop\Marcin\Java-nauka\bookstore\src\main\java\com\yourbooks\bookstore\controller\UserController.java
C:\Users\marci\Desktop\Marcin\Java-nauka\bookstore\src\main\java\com\yourbooks\bookstore\controller\LoginController.java
C:\Users\marci\Desktop\Marcin\Java-nauka\bookstore\src\main\java\com\yourbooks\bookstore\service\UserService.java
C:\Users\marci\Desktop\Marcin\Java-nauka\bookstore\src\main\java\com\yourbooks\bookstore\dao\impl\BookDAOImpl.java
C:\Users\marci\Desktop\Marcin\Java-nauka\bookstore\src\main\java\com\yourbooks\bookstore\config\MvcConfiguration.java
